$ "Hello World" for LS-DYNA
*KEYWORD
*PART
                                                                                
         1         1         1
*SECTION_BEAM
         1         1       1.0         2         1
       1.0       1.0       0.0       0.0         1         1
*MAT_ELASTIC
         1    1.0E-9    1000.0       0.3
*ELEMENT_BEAM
       1       1       2       3       1
       2       1       3       4       1
       3       1       3       6       1
       4       1       6       5       1
       5       1       8      11       1
       6       1      11      12       1
       7       1      12       9       1
       8       1       9       8       1
       9       1       8       7       1
      10       1       7      10       1
      11       1      14      16       1
      12       1      16      15       1
      13       1      13      15       1
      14       1      15      17       1
      15       1      19      21       1
      16       1      21      20       1
      17       1      18      20       1
      18       1      20      22       1
      19       1      23      24       1
      20       1      24      26       1
      21       1      26      25       1
      22       1      25      23       1
      23       1      27      28       1
      24       1      28      29       1
      25       1      29      30       1
      26       1      30      31       1
      27       1      32      33       1
      28       1      33      35       1
      29       1      35      34       1
      30       1      34      32       1
      31       1      36      37       1
      32       1      37      38       1
      33       1      40      42       1
      34       1      42      41       1
      35       1      39      41       1
      36       1      41      43       1
      37       1      44      45       1
      38       1      45      47       1
      39       1      48      47       1
      40       1      47      46       1
      41       1      46      44       1
*NODE
       1             0.0             0.0             1.0
       2
       3             0.0             2.0
       4             0.0             4.0
       5             2.0
       6             2.0             2.0
       7             3.0
       8             3.0             1.0
       9             3.0             2.0
      10             5.0
      11             5.0             1.0
      12             5.0             2.0
      13             6.0
      14             6.0             4.0
      15             7.0
      16             7.0             4.0
      17             8.0
      18             9.0
      19             9.0             4.0
      20            10.0
      21            10.0             4.0
      22            11.0
      23            12.0
      24            12.0             2.0
      25            14.0
      26            14.0             2.0
      27            16.0             2.0
      28            16.5
      29            17.0             1.0
      30            17.5
      31            18.0             2.0
      32            19.0
      33            19.0             2.0
      34            21.0
      35            21.0             2.0
      36            22.0
      37            22.0             2.0
      38            24.0             2.0
      39            25.0
      40            25.0             4.0
      41            26.0
      42            26.0             4.0
      43            27.0
      44            28.0
      45            28.0             2.0
      46            30.0
      47            30.0             2.0
      48            30.0             4.0
*END
